Identifying Specific Charges • ojodb
…
Start broad, then narrow down

To identify burglary charges, we’ll use the str_detect() function on the top_ct_desc variable to look for certain words or parts of words and exclude other words using !str_detect(). This code creates a new variable, burg2, which tells us whether or not the top_ct_desc variable contains the string “BURGLARY”.

d <- d %>% 
  mutate(burg2 = str_detect(top_ct_desc, "BURGLARY"))

We can then look at all of the charges that were caught as burglary and count the number of occurrences like this:

d %>% 
  filter(burg2 == TRUE) %>% # Look just at the charges that fit our criteria
  count(top_ct_desc) %>%    # Count the frequency of each unique value of top_ct_desc
  arrange(desc(n))          # Sort them in descending order of frequency (n)
#> # A tibble: 211 x 2
#>    top_ct_desc                               n
#>    <chr>                                 <int>
#>  1 BURGLARY - SECOND DEGREE                890
#>  2 BURGLARY IN THE SECOND DEGREE           528
#>  3 BURGLARY - FIRST DEGREE                 281
#>  4 BURGLARY, SECOND DEGREE                 151
#>  5 BURGLARY IN THE FIRST DEGREE            107
#>  6 BURGLARY-SECOND DEGREE (FELONY)         101
#>  7 BURGLARY - SECOND DEGREE (AUTOMOBILE)    61
#>  8 BURGLARY OF AUTOMOBILE                   58
#>  9 BURGLARY-1ST DEGREE                      58
#> 10 BURGLARY 2ND DEGREE                      50
#> # … with 201 more rows
…
