Pulling court data with ojodb • ojodb
…
The minute table contains the court minutes for each
case. This is where we get data about court fines and fees, among many
other things. There are a ton of minutes per case, so working with the
minute data often means having to spend a lot of time waiting for data
to download. Each row is one court minute.

We can see exactly which variables are included in each table using
the ojo_list_vars() function. For example, let’s take a
closer look at the main case table:

ojo_list_vars(schema = "public", table = "case")
#> # A tibble: 21 × 1
#>    column_name         
#>    <chr>               
#>  1 appealed_from       
#>  2 attorneys           
#>  3 case_number         
#>  4 case_type           
#>  5 citation_information
#>  6 counts              
#>  7 created_at          
#>  8 date_closed         
#>  9 date_filed          
#> 10 district            
#> # ℹ 11 more rows
…
